{
	code: "xrowboatoar",
	class: "ItemOar",
	storageFlags: 257,
	shape: {
		base: "xeth_rowboat_oar"
	},
	textures: {
		"1": { base: "game:block/wood/debarked/oak" }
	},
	attackRange: 2.5,
	attackpower: 1.0,
	heldTpHitAnimation: "swordhit",
	tooltier: 0,
	attributes: {
		rackable: true,
		toolrackTransformByType: {
			"*": {
				rotation: { x: 90, y: 0, z: -1 },
				translation: { x: 0.1, y: 0.016, z: 0.75 },
				scale: 1.5
			}
		}
	},
	creativeinventory: { "general": ["*"], "items": ["*"], "tools": ["*"] },
	combustibleProps: {
		burnTemperature: 600,
		burnDuration: 10,
	},
	guiTransformByType: {
		"*": {
			translation: { x: -20.0, y: 20.0, z: 15.0 },
			rotation: { x: 20, y: 0, z: -45 },
			origin: { x: 0.5, y: 0.0, z: 0.5 },
			scale: 1.0
		}
	},
	fpHandTransform: {
		translation: { x: -0.0, y: 0.5, z: 0.4 },
		rotation: { x: -72, y: 90, z: 105 },
		origin: { x: 0.5, y: 0, z: 0.5 },
		scale: 2.7
	},
	groundTransformByType: {
		"*": {
			translation: { x: 0.0, y: 0.03, z: 0 },
			rotation: { x: 90, y: 0, z: -1.0 },
			origin: { x: 1.1, y: 0, z: 0.5 },
			scale: 8.3
		}
	},
	tpHandTransformByType: {
		"*": {
			translation: { x: -0.3, y: 0.06, z: -0.325 },
			rotation: { x: 40, y: 0, z: -16 },
			origin: { x: 0.6, y: 0, z: 0.5 },
			scale: 1.5
		}
	},
	tpOffHandTransformByType: {
		"*": {
			translation: { x: -0.3, y: 0.02, z: -0.35 },
			rotation: { x: -40, y: 0, z: -16 },
			origin: { x: 0.6, y: 0, z: 0.5 },
			scale: 1.5
		}
	}
}